{
  "cviceni": {
    "version": {
      "global": "<%= version %>",
      "content": 1
    },
    "katalog": [
      "test"
    ],
    "language": "cs",
    "slug": "proc-upravili-reportaz",
    "nazev": "Proč upravili Reportáž?",
    "autor": [
      "Kamil Činátl",
      "Čeněk Pýcha"
    ],
    "klicovaSlova": {
      "rvp": [
        "důsledky druhé světové války"
      ],
      "koncept": [
        "propaganda",
        "umění"
      ],
      "b4": [
        "vztah k minulosti"
      ],
      "historylab": [
        "porovnáváme zdroje"
      ]
    },
    "casovaOsa": {
      "roky": [
        1945,
        1995
      ],
      "epochy": [
        {
          "refId": "czech",
          "obdobi": [
            "druhá republika a protektorát",
            "transformace"
          ]
        },
        {
          "refId": "world",
          "obdobi": []
        }
      ]
    },
    "anotace": {
      "ucitel": "Žáci se seznámí s Reportáží, psanou na oprátce. Svědectví Julia Fučíka z nacistického vězení hrálo důležitou roli v kulturní politice Československa v letech 1948–1989. Srovnávají cenzurovanou a původní verzi závěru Reportáže. Snaží se uspořádat informace a odhalit záměry úprav tohoto díla.",
      "verejna": "Znáte Reportáž, psanou na oprátce? Víte, že patří mezi nejpřekládanější české knihy? Komunisté upravili již první vydání tohoto svědectví z nacistického vězení. Zkuste porovnat různé verze Reportáže, abyste vypátrali, proč do textu zasahovali."
    },
    "trvani": 45,
    "obtiznost": "vysoká",
    "funkce": [
      "lupa",
      "cteni",
      "text",
      "svg",
      "tabulka",
      "text-editor"
    ],
    "pdf": {
      "doporucenyPostup": "proc-upravili-reportaz.pdf"
    },
    "uvodniObrazek": "proc-upravili-reportaz/pic-05-1024h.jpg",
    "id": 67,
    "color": {
      "rgb": {
        "r": 191,
        "g": 191,
        "b": 191
      },
      "hsv": {
        "h": 0,
        "s": 0,
        "v": 74.9
      }
    }
  },
  "slajd": [
    {
      "zadani": {
        "hlavni": "Kdo byl autor Reportáže, psané na oprátce?",
        "rozsirujici": "Vyznačte v obrázku, jaké vlastnosti Julia Fučíka zdůrazňuje dobová učebnice."
      },
      "napoveda": {
        "aktivity": [
          "svg"
        ],
        "text": "Kliknutím na snímek levým tlačítkem myši označujete bod. Nakliknutím na bod pravým tlačítkem otevřete menu s nabídkou úkonů: změnit barvu bodu, (T) doplnit textový komentář, (X) smazat nakliknutý objekt."
      },
      "svg": {
        "nastaveni": {
          "layout": "horizontalni"
        },
        "galerie": [
          {
            "soubor": "proc-upravili-reportaz/pic-00-1024h.jpg",
            "popisek": "Jiří Doležal a kol.: Obrázky z dějin: učeb. vlastivědy pro 4. postupný roč. n. šk., část 1, Praha 1952"
          },
          {
            "soubor": "proc-upravili-reportaz/pic-01-1024h.jpg"
          },
          {
            "soubor": "proc-upravili-reportaz/pic-02-1024h.jpg"
          },
          {
            "soubor": "proc-upravili-reportaz/pic-03-1024h.jpg"
          },
          {
            "soubor": "proc-upravili-reportaz/pic-04-1024h.jpg",
            "popisek": "Jiří Doležal a kol.: Obrázky z dějin: učeb. vlastivědy pro 4. postupný roč. n. šk., část 1, Praha 1952"
          }
        ],
        "soubory": [
          {
            "id": "svg-1",
            "soubor": "proc-upravili-reportaz/pic-05-1024h.jpg",
            "funkce": [
              "text",
              "znacky"
            ]
          }
        ]
      },
      "popisky": [
        "Max Švabinský: Portrét Julia Fučíka, 1950. Zdroj: Národní muzeum, sbírka Muzeum dělnického hnutí"
      ]
    },
    {
      "zadani": {
        "hlavni": "Srovnejte dvě verze Reportáže, psané na oprátce.",
        "rozsirujici": "Kreslením vyznačte změny v textu."
      },
      "napoveda": {
        "aktivity": [
          "svg"
        ],
        "text": "Tahem myši levým tlačítkem kreslíte do obrazu. Nakliknutím na nakreslený tvar pravým tlačítkem otevřete menu s nabídkou úkonů: změnit barvu tvaru, (T) doplnit textový komentář, (X) smazat nakliknutý objekt."
      },
      "svg": {
        "nastaveni": {
          "layout": "horizontalni"
        },
        "galerie": [
          {
            "soubor": "proc-upravili-reportaz/pic-06-1024h.jpg",
            "popisek": "Julius Fučík: Reportáž, psaná na oprátce. Praha 1953"
          },
          {
            "soubor": "proc-upravili-reportaz/pic-07-1280w.jpg"
          }
        ],
        "soubory": [
          {
            "id": "svg-2",
            "soubor": "proc-upravili-reportaz/pic-08-1024w.jpg",
            "funkce": [
              "text",
              "kresleni"
            ]
          }
        ]
      },
      "popisky": [
        "Julius Fučík: Reportáž, psaná na oprátce. První úplné, kritické a komentované vydání, ed. František Janáček a kol., Praha 1995"
      ]
    },
    {
      "zadani": {
        "hlavni": "Co a proč řekl Fučík?",
        "rozsirujici": "Vyznačte pasáže, ve kterých můžete hledat odpověď na otázky, co řekl Fučík a proč vypovídal."
      },
      "napoveda": {
        "aktivity": [
          "text-editor"
        ],
        "text": "Levým tlačítkem myši zabarvíte zvolené slovo nebo slovní spojení. Otevře se vám nabídka, v níž zvolíte označovanou kategorii. Křížkem lze označení smazat, kliknutím levým tlačítkem na již označené slovo lze přidat textový komentář."
      },
      "textovyEditor": {
        "texty": [
          {
            "id": 1,
            "text": "text-00",
            "funkce": "zvyraznovani",
            "menu": [
              {
                "title": "Co jsem řekl?",
                "commandName": "co",
                "color": "yellow"
              },
              {
                "title": "Proč jsem vypovídal?",
                "commandName": "proc",
                "color": "red"
              }
            ]
          }
        ]
      },
      "popisky": [
        "Julius Fučík: Reportáž, psaná na oprátce. První úplné, kritické a komentované vydání, ed. František Janáček a kol., Praha 1995"
      ]
    },
    {
      "class": [
        "half-slide-previous"
      ],
      "zadani": {
        "hlavni": "Vyznačili jste pasáže, kde Fučík zmiňuje, co řekl a proč vypovídal.",
        "rozsirujici": "Pokud jste s prací spokojeni, pokračujte k závěru cvičení."
      },
      "napoveda": {
        "aktivity": [
          "analyticka-tabulka"
        ],
        "text": "Tabulka zobrazuje práci z předchozí úkolu. Pokud chcete něco změnit, vraťte se o krok zpět."
      },
      "novaTabulka": {
        "tabulky": [
          {
            "id": "nova-tabulka-1",
            "dataFrom": [
              "textovy-editor-1"
            ],
            "columns": [
              {
                "id": "co",
                "name": "Co jsem řekl?",
                "type": {
                  "name": "dup-text",
                  "type": "tag"
                },
                "bg-color": "",
                "values": []
              },
              {
                "id": "proc",
                "name": "Proč jsem vypovídal?",
                "type": {
                  "name": "dup-text",
                  "type": "tag"
                },
                "bg-color": "",
                "values": []
              }
            ],
            "rows": [
              {
                "id": "textovy-editor-1",
                "name": "",
                "type": "",
                "bg-color": "",
                "values": []
              }
            ]
          }
        ]
      }
    },
    {
      "class": [
        "half-slide-active"
      ],
      "zadani": {
        "hlavni": "Proč upravili Reportáž, psanou na oprátce?",
        "rozsirujici": ""
      },
      "napoveda": {
        "aktivity": [
          "text"
        ],
        "text": "Do boxu pro text zapisujete odpověď na otázku, nebo jiný komentář (dle zadání)."
      },
      "uzivatelskyText": {
        "otazky": [
          {
            "id": "text-1",
            "zadani": "Jak Fučík vysvětluje, že promluvil při výslechu?",
            "instrukce": "Myslím si, že…",
            "maxDelka": 300,
            "vyska": 6
          },
          {
            "id": "text-2",
            "zadani": "Proč byla tato část vypuštěna ze všech vydání Reportáže, psané na oprátce v letech 1945–1989?",
            "instrukce": "Myslím si, že…",
            "maxDelka": 300,
            "vyska": 6
          }
        ]
      }
    }
  ]
}